[
    {
        "productId": "p1",
        "productName": "Product Name 1",
        "productShortDescription": "Lorem ipsum dolor sit amet, consectetur adipiscing elit, sed do eiusmod tempor incididunt ut labore et dolore magna aliqua. Turpis egestas integer eget aliquet."
    },
    {
        "productId": "p2",
        "productName": "Product Name 2",
        "productShortDescription": "Auctor urna nunc id cursus. Quis hendrerit dolor magna eget est lorem ipsum dolor."
    },
    {
        "productId": "p3",
        "productName": "Product Name 3",
        "productShortDescription": "Quis lectus nulla at volutpat diam ut venenatis. Aliquet bibendum enim facilisis gravida neque convallis a cras."
    }
]